2012-10-21 12:05:06
-------------------
(live transaction) --> https://api-3t.paypal.com/nvp
Request Headers: 
Array
(
    [0] => Content-Type: text/namevalue
    [1] => X-VPS-Timeout: 45
    [2] => X-VPS-VIT-Client-Type: PHP/cURL
    [3] => X-VPS-VIT-Integration-Product: PHP::Zen Cart(tm) - PayPal/NVP
    [4] => X-VPS-VIT-Integration-Version: 1.3.9h
)


Request Parameters: {DoExpressCheckoutPayment} 
Array
(
    [AMT] => 40.29
    [ITEMAMT] => 35.00
    [SHIPPINGAMT] => 5.29
    [L_NUMBER0] => C1-275
    [L_NAME0] => 2.750 inch plate with ridge
    [L_AMT0] => 35.00
    [L_QTY0] => 1
    [SHIPTONAME] => Sonicraft Inc.
    [SHIPTOSTREET] => 35 Dutch Lane Road
    [SHIPTOCITY] => Freehold
    [SHIPTOSTATE] => NJ
    [SHIPTOZIP] => 07728
    [SHIPTOCOUNTRYCODE] => US
    [BUTTONSOURCE] => ZenCart-EC_us
    [RETURNFMFDETAILS] => 0
    [CUSTOM] => EC-29-1350846303
    [INVNUM] => 29-1350846303-[HejnarPhotoStore]
    [TOKEN] => EC-1Y282253X1229750R
    [PAYERID] => W3KJLK36BBAYQ
    [PAYMENTACTION] => Sale
    [NOTIFYURL] => https://www.hejnarphotostore.com/ipn_main_handler.php
    [METHOD] => DoExpressCheckoutPayment
    [CURRENCYCODE] => USD
    [USER] => info_api1.hejnarphotostore.com
    [PWD] => ****************
    [VERSION] => 60.0
    [SIGNATURE] => ****************************************************m-rl
)


Response: 
Array
(
    [TOKEN] => EC-1Y282253X1229750R
    [SUCCESSPAGEREDIRECTREQUESTED] => false
    [TIMESTAMP] => 2012-10-21T19:05:16Z
    [CORRELATIONID] => aa3e90346fa6f
    [ACK] => Success
    [VERSION] => 60.0
    [BUILD] => 3926908
    [TRANSACTIONID] => 6VT50927D6906401S
    [TRANSACTIONTYPE] => cart
    [PAYMENTTYPE] => instant
    [ORDERTIME] => 2012-10-21T19:05:16Z
    [AMT] => 40.29
    [FEEAMT] => 1.19
    [TAXAMT] => 0.00
    [CURRENCYCODE] => USD
    [PAYMENTSTATUS] => Completed
    [PENDINGREASON] => None
    [REASONCODE] => None
    [PROTECTIONELIGIBILITY] => Eligible
    [INSURANCEOPTIONSELECTED] => false
    [SHIPPINGOPTIONISDEFAULT] => false
    [CURL_ERRORS] => 
)


DoExpressCheckoutPayment, Elapsed: 2496ms -- Success

