2012-08-18 01:59:51
-------------------
(live transaction) --> https://api-3t.paypal.com/nvp
Request Headers: 
Array
(
    [0] => Content-Type: text/namevalue
    [1] => X-VPS-Timeout: 45
    [2] => X-VPS-VIT-Client-Type: PHP/cURL
    [3] => X-VPS-VIT-Integration-Product: PHP::Zen Cart(tm) - PayPal/NVP
    [4] => X-VPS-VIT-Integration-Version: 1.3.9h
)


Request Parameters: {DoExpressCheckoutPayment} 
Array
(
    [AMT] => 129.95
    [ITEMAMT] => 110.00
    [SHIPPINGAMT] => 19.95
    [L_NUMBER0] => M410F63
    [L_NAME0] => Plate with F63 clamp for 410 Gear Head
    [L_AMT0] => 110.00
    [L_QTY0] => 1
    [SHIPTONAME] => Felix Stadler
    [SHIPTOSTREET] => Zypressenweg 16
    [SHIPTOCITY] => Muenchen
    [SHIPTOSTATE] => Muenchen
    [SHIPTOZIP] => 81377
    [SHIPTOCOUNTRYCODE] => DE
    [BUTTONSOURCE] => ZenCart-EC_us
    [RETURNFMFDETAILS] => 0
    [CUSTOM] => EC-316-1345323587
    [INVNUM] => 316-1345323587-[HejnarPhotoStore]
    [TOKEN] => EC-8FY19099CM662120D
    [PAYERID] => H6J2G9B3LBUZY
    [PAYMENTACTION] => Sale
    [NOTIFYURL] => https://www.hejnarphotostore.com/ipn_main_handler.php
    [METHOD] => DoExpressCheckoutPayment
    [CURRENCYCODE] => USD
    [USER] => info_api1.hejnarphotostore.com
    [PWD] => ****************
    [VERSION] => 60.0
    [SIGNATURE] => ****************************************************m-rl
)


Response: 
Array
(
    [TOKEN] => EC-8FY19099CM662120D
    [SUCCESSPAGEREDIRECTREQUESTED] => false
    [TIMESTAMP] => 2012-08-18T20:59:51Z
    [CORRELATIONID] => 2f0df6e2b16a9
    [ACK] => Success
    [VERSION] => 60.0
    [BUILD] => 3516191
    [TRANSACTIONID] => 3J6769079L1092628
    [TRANSACTIONTYPE] => cart
    [PAYMENTTYPE] => instant
    [ORDERTIME] => 2012-08-18T20:59:50Z
    [AMT] => 129.95
    [FEEAMT] => 4.46
    [TAXAMT] => 0.00
    [CURRENCYCODE] => USD
    [PAYMENTSTATUS] => Completed
    [PENDINGREASON] => None
    [REASONCODE] => None
    [PROTECTIONELIGIBILITY] => PartiallyEligible
    [INSURANCEOPTIONSELECTED] => false
    [SHIPPINGOPTIONISDEFAULT] => false
    [CURL_ERRORS] => 
)


DoExpressCheckoutPayment, Elapsed: 3844ms -- Success

