2012-04-19 12:19:46
-------------------
(live transaction) --> https://api-3t.paypal.com/nvp
Request Headers: 
Array
(
    [0] => Content-Type: text/namevalue
    [1] => X-VPS-Timeout: 45
    [2] => X-VPS-VIT-Client-Type: PHP/cURL
    [3] => X-VPS-VIT-Integration-Product: PHP::Zen Cart(tm) - PayPal/NVP
    [4] => X-VPS-VIT-Integration-Version: 1.3.9h
)


Request Parameters: {SetExpressCheckout} 
Array
(
    [AMT] => 109.95
    [ITEMAMT] => 90.00
    [SHIPPINGAMT] => 19.95
    [L_NUMBER0] => ND-7000
    [L_NAME0] => Nikon D7000
    [L_AMT0] => 90.00
    [L_QTY0] => 1
    [LOCALECODE] => US
    [PAYMENTACTION] => Sale
    [ALLOWNOTE] => 1
    [LANDINGPAGE] => Billing
    [ADDROVERRIDE] => 1
    [SHIPTONAME] => Dennis Tong
    [SHIPTOSTREET] => 145, #08-07, Serangoon Avenue 3
    [SHIPTOSTREET2] => The Springbloom
    [SHIPTOCITY] => Singapore
    [SHIPTOZIP] => 556122
    [SHIPTOSTATE] => default
    [SHIPTOCOUNTRYCODE] => SG
    [EMAIL] => dentong@singnet.com.sg
    [SHIPTOPHONENUM] =>  6594876645
    [RETURNURL] => https://www.hejnarphotostore.com/ipn_main_handler.php?type=ec
    [CANCELURL] => https://www.hejnarphotostore.com/index.php?main_page=checkout_shipping&ec_cancel=1
    [PAGESTYLE] => Primary
    [METHOD] => SetExpressCheckout
    [CURRENCYCODE] => USD
    [USER] => info_api1.hejnarphotostore.com
    [PWD] => ****************
    [VERSION] => 60.0
    [SIGNATURE] => ****************************************************m-rl
)


Response: 
Array
(
    [TOKEN] => EC-1TG619472E373472D
    [TIMESTAMP] => 2012-04-19T07:19:46Z
    [CORRELATIONID] => beb15fceba
    [ACK] => Success
    [VERSION] => 60.0
    [BUILD] => 2808426
    [CURL_ERRORS] => 
)


SetExpressCheckout, Elapsed: 763ms -- Success

