2012-02-01 09:53:44
-------------------
(live transaction) --> https://api-3t.paypal.com/nvp
Request Headers: 
Array
(
    [0] => Content-Type: text/namevalue
    [1] => X-VPS-Timeout: 45
    [2] => X-VPS-VIT-Client-Type: PHP/cURL
    [3] => X-VPS-VIT-Integration-Product: PHP::Zen Cart(tm) - PayPal/NVP
    [4] => X-VPS-VIT-Integration-Version: 1.3.9h
)


Request Parameters: {SetExpressCheckout} 
Array
(
    [AMT] => 58.00
    [ITEMAMT] => 58.00
    [L_NUMBER0] => D011
    [L_NAME0] => 1.00 inch plate without ridge
    [L_AMT0] => 20.00
    [L_QTY0] => 1
    [L_NUMBER1] => H007
    [L_NAME1] => 2 inch bidirectional plate with ridge
    [L_AMT1] => 38.00
    [L_QTY1] => 1
    [LOCALECODE] => US
    [PAYMENTACTION] => Sale
    [ALLOWNOTE] => 1
    [LANDINGPAGE] => Billing
    [RETURNURL] => https://www.hejnarphotostore.com/ipn_main_handler.php?type=ec
    [CANCELURL] => https://www.hejnarphotostore.com/index.php?main_page=shopping_cart&ec_cancel=1
    [PAGESTYLE] => Primary
    [METHOD] => SetExpressCheckout
    [CURRENCYCODE] => USD
    [USER] => info_api1.hejnarphotostore.com
    [PWD] => ****************
    [VERSION] => 60.0
    [SIGNATURE] => ****************************************************m-rl
)


Response: 
Array
(
    [TOKEN] => EC-31236222XV573614N
    [TIMESTAMP] => 2012-02-01T16:53:44Z
    [CORRELATIONID] => c35d56b5f0ae6
    [ACK] => Success
    [VERSION] => 60.0
    [BUILD] => 2515991
    [CURL_ERRORS] => 
)


SetExpressCheckout, Elapsed: 758ms -- Success

