2012-02-27 11:17:37
-------------------
(live transaction) --> https://api-3t.paypal.com/nvp
Request Headers: 
Array
(
    [0] => Content-Type: text/namevalue
    [1] => X-VPS-Timeout: 45
    [2] => X-VPS-VIT-Client-Type: PHP/cURL
    [3] => X-VPS-VIT-Integration-Product: PHP::Zen Cart(tm) - PayPal/NVP
    [4] => X-VPS-VIT-Integration-Version: 1.3.9h
)


Request Parameters: {GetExpressCheckoutDetails} 
Array
(
    [TOKEN] => EC-61E02598JB794921E
    [REQBILLINGADDRESS] => 1
    [METHOD] => GetExpressCheckoutDetails
    [USER] => info_api1.hejnarphotostore.com
    [PWD] => ****************
    [VERSION] => 60.0
    [SIGNATURE] => ****************************************************m-rl
)


Response: 
Array
(
    [TOKEN] => EC-61E02598JB794921E
    [CHECKOUTSTATUS] => PaymentActionNotInitiated
    [TIMESTAMP] => 2012-02-27T18:17:37Z
    [CORRELATIONID] => c90543b5f238a
    [ACK] => Success
    [VERSION] => 60.0
    [BUILD] => 2571254
    [EMAIL] => mvillar24@comcast.net
    [PAYERID] => RJUCHYE9CFLHG
    [PAYERSTATUS] => unverified
    [FIRSTNAME] => Marcos
    [LASTNAME] => Villaroman
    [COUNTRYCODE] => US
    [SHIPTONAME] => Marcos Villaroman
    [SHIPTOSTREET] => 1010 Kitchener Circle
    [SHIPTOCITY] => SAN JOSE
    [SHIPTOSTATE] => CA
    [SHIPTOZIP] => 95121
    [SHIPTOCOUNTRYCODE] => US
    [SHIPTOPHONENUM] => 4085998833
    [SHIPTOCOUNTRYNAME] => United States
    [ADDRESSSTATUS] => Confirmed
    [CURRENCYCODE] => USD
    [AMT] => 250.00
    [ITEMAMT] => 250.00
    [SHIPPINGAMT] => 0.00
    [HANDLINGAMT] => 0.00
    [TAXAMT] => 0.00
    [INSURANCEAMT] => 0.00
    [SHIPDISCAMT] => 0.00
    [L_NAME0] => S.C.V Photography Package
    [L_NUMBER0] => SCV Panorama
    [L_QTY0] => 1
    [L_TAXAMT0] => 0.00
    [L_AMT0] => 250.00
    [L_ITEMWEIGHTVALUE0] =>    0.00000
    [L_ITEMLENGTHVALUE0] =>    0.00000
    [L_ITEMWIDTHVALUE0] =>    0.00000
    [L_ITEMHEIGHTVALUE0] =>    0.00000
    [CURL_ERRORS] => 
)


GetExpressCheckoutDetails, Elapsed: 730ms -- Success

