2012-07-27 10:05:20
-------------------
(live transaction) --> https://api-3t.paypal.com/nvp
Request Headers: 
Array
(
    [0] => Content-Type: text/namevalue
    [1] => X-VPS-Timeout: 45
    [2] => X-VPS-VIT-Client-Type: PHP/cURL
    [3] => X-VPS-VIT-Integration-Product: PHP::Zen Cart(tm) - PayPal/NVP
    [4] => X-VPS-VIT-Integration-Version: 1.3.9h
)


Request Parameters: {DoExpressCheckoutPayment} 
Array
(
    [AMT] => 229.30
    [ITEMAMT] => 220.00
    [SHIPPINGAMT] => 9.30
    [L_NUMBER0] => H014
    [L_NAME0] => 1.5 inch square plate
    [L_AMT0] => 40.00
    [L_QTY0] => 1
    [L_NUMBER1] => LB11
    [L_NAME1] => L bracket 11 (Base 1 Side 1)
    [L_AMT1] => 90.00
    [L_QTY1] => 2
    [SHIPTONAME] => Richard Storch
    [SHIPTOSTREET] => 5101 Palisade Lane, NW
    [SHIPTOCITY] => Washington
    [SHIPTOSTATE] => DC
    [SHIPTOZIP] => 20016
    [SHIPTOCOUNTRYCODE] => US
    [BUTTONSOURCE] => ZenCart-EC_us
    [RETURNFMFDETAILS] => 0
    [CUSTOM] => EC-283-1343408717
    [INVNUM] => 283-1343408717-[HejnarPhotoStore]
    [TOKEN] => EC-1LP154691M145670G
    [PAYERID] => QX5JY3RPHRUPY
    [PAYMENTACTION] => Sale
    [NOTIFYURL] => https://www.hejnarphotostore.com/ipn_main_handler.php
    [METHOD] => DoExpressCheckoutPayment
    [CURRENCYCODE] => USD
    [USER] => info_api1.hejnarphotostore.com
    [PWD] => ****************
    [VERSION] => 60.0
    [SIGNATURE] => ****************************************************m-rl
)


Response: 
Array
(
    [TOKEN] => EC-1LP154691M145670G
    [SUCCESSPAGEREDIRECTREQUESTED] => false
    [TIMESTAMP] => 2012-07-27T17:05:20Z
    [CORRELATIONID] => 39dbea29bc5c7
    [ACK] => Success
    [VERSION] => 60.0
    [BUILD] => 3356571
    [TRANSACTIONID] => 6D913461T1314751H
    [TRANSACTIONTYPE] => cart
    [PAYMENTTYPE] => instant
    [ORDERTIME] => 2012-07-27T17:05:19Z
    [AMT] => 229.30
    [FEEAMT] => 5.34
    [TAXAMT] => 0.00
    [CURRENCYCODE] => USD
    [PAYMENTSTATUS] => Completed
    [PENDINGREASON] => None
    [REASONCODE] => None
    [PROTECTIONELIGIBILITY] => Eligible
    [INSURANCEOPTIONSELECTED] => false
    [SHIPPINGOPTIONISDEFAULT] => false
    [CURL_ERRORS] => 
)


DoExpressCheckoutPayment, Elapsed: 3011ms -- Success

