2012-10-29 03:32:03
-------------------
(live transaction) --> https://api-3t.paypal.com/nvp
Request Headers: 
Array
(
    [0] => Content-Type: text/namevalue
    [1] => X-VPS-Timeout: 45
    [2] => X-VPS-VIT-Client-Type: PHP/cURL
    [3] => X-VPS-VIT-Integration-Product: PHP::Zen Cart(tm) - PayPal/NVP
    [4] => X-VPS-VIT-Integration-Version: 1.3.9h
)


Request Parameters: {DoDirectPayment} 
Array
(
    [ACCT] => ************5787
    [AMT] => 50.30
    [BUTTONSOURCE] => ZenCart-DP_us
    [CARDISSUE] => 
    [CITY] => Huntsville
    [COUNTRYCODE] => US
    [CREDITCARDTYPE] => Visa
    [CUSTOM] => DP-416-1351549920
    [CVV2] => ***
    [EMAIL] => mattmarvin@hotmail.com
    [EXPDATE] => 072014
    [FIRSTNAME] => Matthew
    [INVNUM] => 416-1351549920-[HejnarPhotoStore]
    [IPADDRESS] => 99.95.120.19
    [ITEMAMT] => 45.00
    [LASTNAME] => Marvin
    [L_AMT0] => 50.00
    [L_AMT1] => -5.00
    [L_DESC1] => Credits applied, including discount coupons, gift certificates, etc
    [L_NAME0] => Nikon 200-400 F4.0 AFS VR VR II
    [L_NAME1] => Discounts
    [L_NUMBER0] => H105
    [L_QTY0] => 1
    [L_QTY1] => 1
    [NOTIFYURL] => https://www.hejnarphotostore.com/ipn_main_handler.php
    [PAYMENTACTION] => Sale
    [PHONENUM] => 479-738-5521
    [SHIPPINGAMT] => 5.30
    [SHIPTOCITY] => Huntsville
    [SHIPTOCOUNTRYCODE] => US
    [SHIPTONAME] => Matthew Marvin
    [SHIPTOSTATE] => AR
    [SHIPTOSTREET] => 422 Madison 6501
    [SHIPTOZIP] => 72740
    [STATE] => AR
    [STREET] => 422 Madison 6501
    [ZIP] => 72740
    [METHOD] => DoDirectPayment
    [CURRENCYCODE] => USD
    [USER] => info_api1.hejnarphotostore.com
    [PWD] => ****************
    [VERSION] => 60.0
    [SIGNATURE] => ****************************************************m-rl
)


Response: 
Array
(
    [TIMESTAMP] => 2012-10-29T22:32:14Z
    [CORRELATIONID] => 9c154fbd9cce2
    [ACK] => Success
    [VERSION] => 60.0
    [BUILD] => 3926908
    [AMT] => 50.30
    [CURRENCYCODE] => USD
    [AVSCODE] => Y
    [CVV2MATCH] => M
    [TRANSACTIONID] => 2L9610089X1691056
    [CURL_ERRORS] => 
)


DoDirectPayment, Elapsed: 2550ms -- Success

