2012-08-03 12:03:24
-------------------
(live transaction) --> https://api-3t.paypal.com/nvp
Request Headers: 
Array
(
    [0] => Content-Type: text/namevalue
    [1] => X-VPS-Timeout: 45
    [2] => X-VPS-VIT-Client-Type: PHP/cURL
    [3] => X-VPS-VIT-Integration-Product: PHP::Zen Cart(tm) - PayPal/NVP
    [4] => X-VPS-VIT-Integration-Version: 1.3.9h
)


Request Parameters: {SetExpressCheckout} 
Array
(
    [AMT] => 455.00
    [ITEMAMT] => 455.00
    [L_NUMBER0] => M410F63
    [L_NAME0] => Plate with F63 clamp for 410 Gear Head
    [L_AMT0] => 110.00
    [L_QTY0] => 1
    [L_NUMBER1] => M405F63
    [L_NAME1] => Plate with F63 clamp for 405 Gear Head
    [L_AMT1] => 110.00
    [L_QTY1] => 1
    [L_NUMBER2] => LLSP6
    [L_NAME2] => 12 inch Lens Support Package
    [L_AMT2] => 110.00
    [L_QTY2] => 1
    [L_NUMBER3] => F72Set
    [L_NAME3] => Set of two 2.375 inch clamps with bubble level
    [L_AMT3] => 125.00
    [L_QTY3] => 1
    [LOCALECODE] => US
    [PAYMENTACTION] => Sale
    [ALLOWNOTE] => 1
    [LANDINGPAGE] => Billing
    [RETURNURL] => https://www.hejnarphotostore.com/ipn_main_handler.php?type=ec
    [CANCELURL] => https://www.hejnarphotostore.com/index.php?main_page=shopping_cart&ec_cancel=1
    [PAGESTYLE] => Primary
    [METHOD] => SetExpressCheckout
    [CURRENCYCODE] => USD
    [USER] => info_api1.hejnarphotostore.com
    [PWD] => ****************
    [VERSION] => 60.0
    [SIGNATURE] => ****************************************************m-rl
)


Response: 
Array
(
    [TOKEN] => EC-4F182102SK108861H
    [TIMESTAMP] => 2012-08-03T07:03:24Z
    [CORRELATIONID] => b01a54e3925d
    [ACK] => Success
    [VERSION] => 60.0
    [BUILD] => 3386080
    [CURL_ERRORS] => 
)


SetExpressCheckout, Elapsed: 625ms -- Success

