2012-07-13 12:06:26
-------------------
(live transaction) --> https://api-3t.paypal.com/nvp
Request Headers: 
Array
(
    [0] => Content-Type: text/namevalue
    [1] => X-VPS-Timeout: 45
    [2] => X-VPS-VIT-Client-Type: PHP/cURL
    [3] => X-VPS-VIT-Integration-Product: PHP::Zen Cart(tm) - PayPal/NVP
    [4] => X-VPS-VIT-Integration-Version: 1.3.9h
)


Request Parameters: {DoExpressCheckoutPayment} 
Array
(
    [AMT] => 70.30
    [ITEMAMT] => 65.00
    [SHIPPINGAMT] => 5.30
    [L_NUMBER0] => F62b
    [L_NAME0] => 2.375 inch jaw length clamp with long black knob
    [L_AMT0] => 65.00
    [L_QTY0] => 1
    [SHIPTONAME] => Alan Austin
    [SHIPTOSTREET] => 1119 South MIssion Road
    [SHIPTOSTREET2] => Suite 331
    [SHIPTOCITY] => Fallbrook
    [SHIPTOSTATE] => CA
    [SHIPTOZIP] => 92028
    [SHIPTOCOUNTRYCODE] => US
    [BUTTONSOURCE] => ZenCart-EC_us
    [ADDROVERRIDE] => 1
    [RETURNFMFDETAILS] => 0
    [CUSTOM] => EC-263-1342206383
    [INVNUM] => 263-1342206383-[HejnarPhotoStore]
    [TOKEN] => EC-87352359FW5188052
    [PAYERID] => SQ6B8BUK4H8ZJ
    [PAYMENTACTION] => Sale
    [NOTIFYURL] => https://www.hejnarphotostore.com/ipn_main_handler.php
    [METHOD] => DoExpressCheckoutPayment
    [CURRENCYCODE] => USD
    [USER] => info_api1.hejnarphotostore.com
    [PWD] => ****************
    [VERSION] => 60.0
    [SIGNATURE] => ****************************************************m-rl
)


Response: 
Array
(
    [TOKEN] => EC-87352359FW5188052
    [SUCCESSPAGEREDIRECTREQUESTED] => false
    [TIMESTAMP] => 2012-07-13T19:06:26Z
    [CORRELATIONID] => 37aca98084cec
    [ACK] => Success
    [VERSION] => 60.0
    [BUILD] => 3300093
    [TRANSACTIONID] => 7P356159F4669005H
    [TRANSACTIONTYPE] => cart
    [PAYMENTTYPE] => instant
    [ORDERTIME] => 2012-07-13T19:06:26Z
    [AMT] => 70.30
    [FEEAMT] => 1.85
    [TAXAMT] => 0.00
    [CURRENCYCODE] => USD
    [PAYMENTSTATUS] => Completed
    [PENDINGREASON] => None
    [REASONCODE] => None
    [PROTECTIONELIGIBILITY] => Eligible
    [INSURANCEOPTIONSELECTED] => false
    [SHIPPINGOPTIONISDEFAULT] => false
    [CURL_ERRORS] => 
)


DoExpressCheckoutPayment, Elapsed: 3673ms -- Success

