2012-07-16 05:10:56
-------------------
(live transaction) --> https://api-3t.paypal.com/nvp
Request Headers: 
Array
(
    [0] => Content-Type: text/namevalue
    [1] => X-VPS-Timeout: 45
    [2] => X-VPS-VIT-Client-Type: PHP/cURL
    [3] => X-VPS-VIT-Integration-Product: PHP::Zen Cart(tm) - PayPal/NVP
    [4] => X-VPS-VIT-Integration-Version: 1.3.9h
)


Request Parameters: {GetExpressCheckoutDetails} 
Array
(
    [TOKEN] => EC-4UE577879M772143T
    [REQBILLINGADDRESS] => 1
    [METHOD] => GetExpressCheckoutDetails
    [USER] => info_api1.hejnarphotostore.com
    [PWD] => ****************
    [VERSION] => 60.0
    [SIGNATURE] => ****************************************************m-rl
)


Response: 
Array
(
    [TOKEN] => EC-4UE577879M772143T
    [CHECKOUTSTATUS] => PaymentActionNotInitiated
    [TIMESTAMP] => 2012-07-17T00:10:56Z
    [CORRELATIONID] => dd8a7cf36e4ac
    [ACK] => Success
    [VERSION] => 60.0
    [BUILD] => 3300093
    [EMAIL] => rains@nickrains.com
    [PAYERID] => K42879A3EB75G
    [PAYERSTATUS] => unverified
    [FIRSTNAME] => Nick
    [LASTNAME] => Rains
    [COUNTRYCODE] => AU
    [SHIPTONAME] => Nick Rains
    [SHIPTOSTREET] => 127  Yarrabee  RD
    [SHIPTOSTREET2] => Nick Rains
    [SHIPTOCITY] => The Gap
    [SHIPTOSTATE] => Queensland
    [SHIPTOZIP] => 4061
    [SHIPTOCOUNTRYCODE] => AU
    [SHIPTOCOUNTRYNAME] => Australia
    [ADDRESSSTATUS] => Unconfirmed
    [CURRENCYCODE] => USD
    [AMT] => 69.00
    [ITEMAMT] => 69.00
    [SHIPPINGAMT] => 0.00
    [HANDLINGAMT] => 0.00
    [TAXAMT] => 0.00
    [INSURANCEAMT] => 0.00
    [SHIPDISCAMT] => 0.00
    [L_NAME0] => 6 inch rail with integrated clamp
    [L_NUMBER0] => E003
    [L_QTY0] => 1
    [L_TAXAMT0] => 0.00
    [L_AMT0] => 69.00
    [L_ITEMWEIGHTVALUE0] =>    0.00000
    [L_ITEMLENGTHVALUE0] =>    0.00000
    [L_ITEMWIDTHVALUE0] =>    0.00000
    [L_ITEMHEIGHTVALUE0] =>    0.00000
    [CURL_ERRORS] => 
)


GetExpressCheckoutDetails, Elapsed: 589ms -- Success

