2012-08-14 03:11:40
-------------------
(live transaction) --> https://api-3t.paypal.com/nvp
Request Headers: 
Array
(
    [0] => Content-Type: text/namevalue
    [1] => X-VPS-Timeout: 45
    [2] => X-VPS-VIT-Client-Type: PHP/cURL
    [3] => X-VPS-VIT-Integration-Product: PHP::Zen Cart(tm) - PayPal/NVP
    [4] => X-VPS-VIT-Integration-Version: 1.3.9h
)


Request Parameters: {GetExpressCheckoutDetails} 
Array
(
    [TOKEN] => EC-0KT446568H292602B
    [REQBILLINGADDRESS] => 1
    [METHOD] => GetExpressCheckoutDetails
    [USER] => info_api1.hejnarphotostore.com
    [PWD] => ****************
    [VERSION] => 60.0
    [SIGNATURE] => ****************************************************m-rl
)


Response: 
Array
(
    [TOKEN] => EC-0KT446568H292602B
    [CHECKOUTSTATUS] => PaymentActionNotInitiated
    [TIMESTAMP] => 2012-08-14T22:11:40Z
    [CORRELATIONID] => 2f4522c46c12a
    [ACK] => Success
    [VERSION] => 60.0
    [BUILD] => 3435050
    [EMAIL] => g.purvis@comcast.net
    [PAYERID] => WBVTH7J8L3PU4
    [PAYERSTATUS] => verified
    [FIRSTNAME] => George D
    [LASTNAME] => Purvis III
    [COUNTRYCODE] => US
    [SHIPTONAME] => George D Purvis III
    [SHIPTOSTREET] => 17665 SW Albert Ct
    [SHIPTOCITY] => Beaverton
    [SHIPTOSTATE] => OR
    [SHIPTOZIP] => 97007
    [SHIPTOCOUNTRYCODE] => US
    [SHIPTOCOUNTRYNAME] => United States
    [ADDRESSSTATUS] => Confirmed
    [CURRENCYCODE] => USD
    [AMT] => 90.00
    [ITEMAMT] => 90.00
    [SHIPPINGAMT] => 0.00
    [HANDLINGAMT] => 0.00
    [TAXAMT] => 0.00
    [INSURANCEAMT] => 0.00
    [SHIPDISCAMT] => 0.00
    [L_NAME0] => Nikon D800 L bracket
    [L_NUMBER0] => ND800
    [L_QTY0] => 1
    [L_TAXAMT0] => 0.00
    [L_AMT0] => 90.00
    [L_ITEMWEIGHTVALUE0] =>    0.00000
    [L_ITEMLENGTHVALUE0] =>    0.00000
    [L_ITEMWIDTHVALUE0] =>    0.00000
    [L_ITEMHEIGHTVALUE0] =>    0.00000
    [CURL_ERRORS] => 
)


GetExpressCheckoutDetails, Elapsed: 870ms -- Success

