2012-08-30 06:43:39
-------------------
(live transaction) --> https://api-3t.paypal.com/nvp
Request Headers: 
Array
(
    [0] => Content-Type: text/namevalue
    [1] => X-VPS-Timeout: 45
    [2] => X-VPS-VIT-Client-Type: PHP/cURL
    [3] => X-VPS-VIT-Integration-Product: PHP::Zen Cart(tm) - PayPal/NVP
    [4] => X-VPS-VIT-Integration-Version: 1.3.9h
)


Request Parameters: {GetExpressCheckoutDetails} 
Array
(
    [TOKEN] => EC-2TA4427052702950V
    [REQBILLINGADDRESS] => 1
    [METHOD] => GetExpressCheckoutDetails
    [USER] => info_api1.hejnarphotostore.com
    [PWD] => ****************
    [VERSION] => 60.0
    [SIGNATURE] => ****************************************************m-rl
)


Response: 
Array
(
    [TOKEN] => EC-2TA4427052702950V
    [CHECKOUTSTATUS] => PaymentActionNotInitiated
    [TIMESTAMP] => 2012-08-31T01:43:38Z
    [CORRELATIONID] => 8c83e344e0fed
    [ACK] => Success
    [VERSION] => 60.0
    [BUILD] => 3587318
    [EMAIL] => zawrotny@gmail.com
    [PAYERID] => 6LDQM36VVXXSU
    [PAYERSTATUS] => verified
    [FIRSTNAME] => David
    [LASTNAME] => Zawrotny
    [COUNTRYCODE] => US
    [SHIPTONAME] => David Zawrotny
    [SHIPTOSTREET] => 225 Laurence Dr
    [SHIPTOCITY] => Moorestown
    [SHIPTOSTATE] => NJ
    [SHIPTOZIP] => 08057
    [SHIPTOCOUNTRYCODE] => US
    [SHIPTOPHONENUM] => 8562342824
    [SHIPTOCOUNTRYNAME] => United States
    [ADDRESSSTATUS] => Confirmed
    [CURRENCYCODE] => USD
    [AMT] => 236.05
    [ITEMAMT] => 225.00
    [SHIPPINGAMT] => 11.05
    [HANDLINGAMT] => 0.00
    [TAXAMT] => 0.00
    [INSURANCEAMT] => 0.00
    [SHIPDISCAMT] => 0.00
    [L_NAME0] => S.C.V Photography Package
    [L_NAME1] => Discounts
    [L_NUMBER0] => SCV Panorama
    [L_QTY0] => 1
    [L_QTY1] => 1
    [L_TAXAMT0] => 0.00
    [L_TAXAMT1] => 0.00
    [L_AMT0] => 250.00
    [L_AMT1] => -25.00
    [L_DESC1] => Credits applied, including discount coupons, gift certificates, etc
    [L_ITEMWEIGHTVALUE0] =>    0.00000
    [L_ITEMWEIGHTVALUE1] =>    0.00000
    [L_ITEMLENGTHVALUE0] =>    0.00000
    [L_ITEMLENGTHVALUE1] =>    0.00000
    [L_ITEMWIDTHVALUE0] =>    0.00000
    [L_ITEMWIDTHVALUE1] =>    0.00000
    [L_ITEMHEIGHTVALUE0] =>    0.00000
    [L_ITEMHEIGHTVALUE1] =>    0.00000
    [CURL_ERRORS] => 
)


GetExpressCheckoutDetails, Elapsed: 593ms -- Success

