2012-02-29 07:04:10
-------------------
(live transaction) --> https://api-3t.paypal.com/nvp
Request Headers: 
Array
(
    [0] => Content-Type: text/namevalue
    [1] => X-VPS-Timeout: 45
    [2] => X-VPS-VIT-Client-Type: PHP/cURL
    [3] => X-VPS-VIT-Integration-Product: PHP::Zen Cart(tm) - PayPal/NVP
    [4] => X-VPS-VIT-Integration-Version: 1.3.9h
)


Request Parameters: {DoExpressCheckoutPayment} 
Array
(
    [AMT] => 101.93
    [ITEMAMT] => 90.00
    [TAXAMT] => 6.98
    [SHIPPINGAMT] => 4.95
    [L_NUMBER0] => ND300
    [L_NAME0] => Nikon D300/s
    [L_AMT0] => 90.00
    [L_QTY0] => 1
    [SHIPTONAME] => Ronald May
    [SHIPTOSTREET] => 738 W. Melrose St.
    [SHIPTOCITY] => Chicago
    [SHIPTOSTATE] => IL
    [SHIPTOZIP] => 60657
    [SHIPTOCOUNTRYCODE] => US
    [BUTTONSOURCE] => ZenCart-EC_us
    [RETURNFMFDETAILS] => 0
    [CUSTOM] => EC-112-1330524246
    [INVNUM] => 112-1330524246-[HejnarPhotoStore]
    [TOKEN] => EC-4VP299493X4925641
    [PAYERID] => Y8ZFWQAHGPCY4
    [PAYMENTACTION] => Sale
    [NOTIFYURL] => https://www.hejnarphotostore.com/ipn_main_handler.php
    [METHOD] => DoExpressCheckoutPayment
    [CURRENCYCODE] => USD
    [USER] => info_api1.hejnarphotostore.com
    [PWD] => ****************
    [VERSION] => 60.0
    [SIGNATURE] => ****************************************************m-rl
)


Response: 
Array
(
    [TOKEN] => EC-4VP299493X4925641
    [SUCCESSPAGEREDIRECTREQUESTED] => false
    [TIMESTAMP] => 2012-02-29T14:04:10Z
    [CORRELATIONID] => d0dfb6b85c7d4
    [ACK] => Success
    [VERSION] => 60.0
    [BUILD] => 2571254
    [TRANSACTIONID] => 83V38714E7900230E
    [TRANSACTIONTYPE] => cart
    [PAYMENTTYPE] => instant
    [ORDERTIME] => 2012-02-29T14:04:09Z
    [AMT] => 101.93
    [FEEAMT] => 2.54
    [TAXAMT] => 6.98
    [CURRENCYCODE] => USD
    [PAYMENTSTATUS] => Completed
    [PENDINGREASON] => None
    [REASONCODE] => None
    [PROTECTIONELIGIBILITY] => Eligible
    [INSURANCEOPTIONSELECTED] => false
    [SHIPPINGOPTIONISDEFAULT] => false
    [CURL_ERRORS] => 
)


DoExpressCheckoutPayment, Elapsed: 3353ms -- Success

