2011-12-08 07:15:36
-------------------
(live transaction) --> https://api-3t.paypal.com/nvp
Request Headers: 
Array
(
    [0] => Content-Type: text/namevalue
    [1] => X-VPS-Timeout: 45
    [2] => X-VPS-VIT-Client-Type: PHP/cURL
    [3] => X-VPS-VIT-Integration-Product: PHP::Zen Cart(tm) - PayPal/NVP
    [4] => X-VPS-VIT-Integration-Version: 1.3.9h
)


Request Parameters: {SetExpressCheckout} 
Array
(
    [AMT] => 65.00
    [ITEMAMT] => 65.00
    [L_NUMBER0] => M405A Rev 1 Plate only
    [L_NAME0] => Plate for Monfrotto 405/410 Gear Head - Rev 1
    [L_AMT0] => 65.00
    [L_QTY0] => 1
    [LOCALECODE] => US
    [PAYMENTACTION] => Sale
    [ALLOWNOTE] => 1
    [LANDINGPAGE] => Billing
    [RETURNURL] => https://www.hejnarphotostore.com/ipn_main_handler.php?type=ec
    [CANCELURL] => https://www.hejnarphotostore.com/index.php?main_page=shopping_cart&ec_cancel=1
    [PAGESTYLE] => Primary
    [METHOD] => SetExpressCheckout
    [CURRENCYCODE] => USD
    [USER] => info_api1.hejnarphotostore.com
    [PWD] => ****************
    [VERSION] => 60.0
    [SIGNATURE] => ****************************************************m-rl
)


Response: 
Array
(
    [TOKEN] => EC-6GR580633G2247222
    [TIMESTAMP] => 2011-12-08T14:15:36Z
    [CORRELATIONID] => b3d4dd7290ff
    [ACK] => Success
    [VERSION] => 60.0
    [BUILD] => 2271164
    [CURL_ERRORS] => 
)


SetExpressCheckout, Elapsed: 724ms -- Success

