2012-03-12 03:52:40
-------------------
(live transaction) --> https://api-3t.paypal.com/nvp
Request Headers: 
Array
(
    [0] => Content-Type: text/namevalue
    [1] => X-VPS-Timeout: 45
    [2] => X-VPS-VIT-Client-Type: PHP/cURL
    [3] => X-VPS-VIT-Integration-Product: PHP::Zen Cart(tm) - PayPal/NVP
    [4] => X-VPS-VIT-Integration-Version: 1.3.9h
)


Request Parameters: {DoExpressCheckoutPayment} 
Array
(
    [AMT] => 113.35
    [ITEMAMT] => 105.00
    [SHIPPINGAMT] => 8.35
    [L_NUMBER0] => M468MG
    [L_NAME0] => Clamp for Manfrotto 468MG hydro-static head
    [L_AMT0] => 65.00
    [L_QTY0] => 1
    [L_NUMBER1] => H106
    [L_NAME1] => Canon 70-200/f2.8 and Canon 100-400mm
    [L_AMT1] => 40.00
    [L_QTY1] => 1
    [SHIPTONAME] => David Chan
    [SHIPTOSTREET] => 435 Bridlewood Circle
    [SHIPTOCITY] => Decatur
    [SHIPTOSTATE] => GA
    [SHIPTOZIP] => 30030
    [SHIPTOCOUNTRYCODE] => US
    [BUTTONSOURCE] => ZenCart-EC_us
    [RETURNFMFDETAILS] => 0
    [CUSTOM] => EC-122-1331592757
    [INVNUM] => 122-1331592757-[HejnarPhotoStore]
    [TOKEN] => EC-37343594EH090522T
    [PAYERID] => YUEQTKPSESE5G
    [PAYMENTACTION] => Sale
    [NOTIFYURL] => https://www.hejnarphotostore.com/ipn_main_handler.php
    [METHOD] => DoExpressCheckoutPayment
    [CURRENCYCODE] => USD
    [USER] => info_api1.hejnarphotostore.com
    [PWD] => ****************
    [VERSION] => 60.0
    [SIGNATURE] => ****************************************************m-rl
)


Response: 
Array
(
    [TOKEN] => EC-37343594EH090522T
    [SUCCESSPAGEREDIRECTREQUESTED] => false
    [TIMESTAMP] => 2012-03-12T22:52:40Z
    [CORRELATIONID] => 4f8025529fa45
    [ACK] => Success
    [VERSION] => 60.0
    [BUILD] => 2649250
    [TRANSACTIONID] => 8BW81656CK0755609
    [TRANSACTIONTYPE] => cart
    [PAYMENTTYPE] => instant
    [ORDERTIME] => 2012-03-12T22:52:39Z
    [AMT] => 113.35
    [FEEAMT] => 2.79
    [TAXAMT] => 0.00
    [CURRENCYCODE] => USD
    [PAYMENTSTATUS] => Completed
    [PENDINGREASON] => None
    [REASONCODE] => None
    [PROTECTIONELIGIBILITY] => Eligible
    [INSURANCEOPTIONSELECTED] => false
    [SHIPPINGOPTIONISDEFAULT] => false
    [CURL_ERRORS] => 
)


DoExpressCheckoutPayment, Elapsed: 3474ms -- Success

